{
	"91bb6ecdcbecdd703cba913a01f9e80ecf790676":{
		"slug":"91bb6ecdcbecdd703cba913a01f9e80ecf790676",
		"url":"http:\/\/static.fsf.org\/fsforg\/rss\/news.xml",
		"title":"News",
		"reader":"update",
		"user":1
	},
	"98ce8eb9c7a02dede6df94cbb9df81ea4f6d526d":{
		"slug":"98ce8eb9c7a02dede6df94cbb9df81ea4f6d526d",
		"url":"http:\/\/wordpress.org\/news\/feed\/",
		"title":"WordPress News",
		"reader":"update",
		"user":1
	},
}
